<?xml version="1.0" encoding="UTF-8"?>
<svg width="10px" height="18px" viewBox="0 0 10 18" version="1.1" xmlns="http://www.w3.org/2000/svg" xmlns:xlink="http://www.w3.org/1999/xlink">
    <title>Icon</title>
    <defs>
        <path d="M32.6778123,18.7876111 L25.8396444,25.9818517 L32.7080906,33.2080256 C33.1007584,33.6211447 33.1006956,34.278222 32.6871365,34.7125137 C32.2922003,35.1040325 31.6612608,35.0944544 31.2778937,34.6911205 L24.4162417,27.4793729 L23,25.9820911 L24.4231261,24.4915572 C28.9822714,19.6953492 31.2653628,17.2937225 31.2724003,17.2866771 C31.6662944,16.8962316 32.2955371,16.9058169 32.6778534,17.3080865 C33.0694985,17.7201718 33.0694803,18.3755484 32.6778123,18.7876111 Z" id="path-1"></path>
    </defs>
    <g id="Page-1" stroke="none" stroke-width="1" fill="none" fill-rule="evenodd">
        <g id="55.-Card-Details---White" transform="translate(-23.000000, -17.000000)">
            <mask id="mask-2" fill="white">
                <use xlink:href="#path-1"></use>
            </mask>
            <use id="Icon" fill="currentColor" xlink:href="#path-1"></use>
        </g>
    </g>
</svg>