<?xml version="1.0" encoding="UTF-8"?>
<svg width="36px" height="36px" viewBox="0 0 36 36" version="1.1" xmlns="http://www.w3.org/2000/svg" xmlns:xlink="http://www.w3.org/1999/xlink">
    <title>capture</title>
    <g id="Symbols" stroke="none" stroke-width="1" fill="none" fill-rule="evenodd">
        <g id="chat-More" transform="translate(0.000000, -78.000000)" fill-rule="nonzero">
            <g id="capture" transform="translate(0.000000, 78.000000)">
                <circle id="Oval" fill="#FFFFFF" cx="18" cy="18" r="18"></circle>
                <g id="Group" transform="translate(9.000000, 10.796026)" fill="#C42124">
                    <g id="Shape">
                        <path d="M15.8478261,2.50832201 L13.9695652,2.50832201 L12.9326087,0.94310462 C12.5413043,0.356148098 11.8565217,0.00397418478 11.1521739,0.00397418478 L6.84782609,0.00397418478 C6.14347826,0.00397418478 5.45869565,0.356148098 5.0673913,0.94310462 L4.03043478,2.50832201 L2.15217391,2.50832201 C0.958695652,2.50832201 0,3.46701766 0,4.66049592 L0,12.2518003 C0,13.4452785 0.958695652,14.4039742 2.15217391,14.4039742 L15.8478261,14.4039742 C17.0413043,14.4039742 18,13.4452785 18,12.2518003 L18,4.66049592 C18,3.46701766 17.0413043,2.50832201 15.8478261,2.50832201 Z M9,12.6431046 C6.31956522,12.6431046 4.14782609,10.4713655 4.14782609,7.79093071 C4.14782609,5.11049592 6.31956522,2.95832201 9,2.95832201 C11.6804348,2.95832201 13.8521739,5.13006114 13.8521739,7.81049592 C13.8521739,10.4713655 11.6804348,12.6431046 9,12.6431046 Z M15.573913,5.54093071 C15.5543478,5.54093071 15.5347826,5.54093071 15.4956522,5.54093071 L14.7130435,5.54093071 C14.3608696,5.52136549 14.0869565,5.22788723 14.1065217,4.87571332 C14.126087,4.54310462 14.3804348,4.28875679 14.7130435,4.26919158 L15.4956522,4.26919158 C15.8478261,4.24962636 16.1413043,4.5235394 16.1608696,4.87571332 C16.1804348,5.22788723 15.926087,5.52136549 15.573913,5.54093071 Z"></path>
                    </g>
                    <g transform="translate(6.266984, 5.082371)" id="Path">
                        <path d="M2.7330163,0.028125 C1.24605978,0.028125 0.0330163043,1.24116848 0.0330163043,2.728125 C0.0330163043,4.21508152 1.24605978,5.40855978 2.7330163,5.40855978 C4.21997283,5.40855978 5.4330163,4.1955163 5.4330163,2.70855978 C5.4330163,1.22160326 4.21997283,0.028125 2.7330163,0.028125 Z"></path>
                    </g>
                </g>
            </g>
        </g>
    </g>
</svg>