<?xml version="1.0" encoding="UTF-8"?>
<svg width="23px" height="22px" viewBox="0 0 23 22" version="1.1" xmlns="http://www.w3.org/2000/svg" xmlns:xlink="http://www.w3.org/1999/xlink">
    <title>close</title>
    <g id="Symbols" stroke="none" stroke-width="1" fill="none" fill-rule="evenodd">
        <g id="chat-More" transform="translate(-147.000000, -61.000000)" fill="currentColor" fill-rule="nonzero">
            <g id="close" transform="translate(147.164062, 61.000000)">
                <path d="M12.9867187,10.9846354 L21.5341146,2.4369792 C22.0903646,1.8809896 22.0903646,0.982031267 21.5341146,0.426041667 C20.978125,-0.129947933 20.0791667,-0.129947933 19.5231771,0.426041667 L10.9755208,8.97369793 L2.428125,0.426041667 C1.871875,-0.129947933 0.973177067,-0.129947933 0.417187467,0.426041667 C-0.139062533,0.982031267 -0.139062533,1.8809896 0.417187467,2.4369792 L8.96458333,10.9846354 L0.417187467,19.5322917 C-0.139062533,20.0882813 -0.139062533,20.9872396 0.417187467,21.5432292 C0.6942708,21.8205729 1.05859373,21.9598959 1.42265627,21.9598959 C1.78671873,21.9598959 2.15078127,21.8205729 2.428125,21.5432292 L10.9755208,12.9955729 L19.5231771,21.5432292 C19.8005208,21.8205729 20.1645833,21.9598959 20.5286459,21.9598959 C20.8927083,21.9598959 21.2567708,21.8205729 21.5341146,21.5432292 C22.0903646,20.9872396 22.0903646,20.0882813 21.5341146,19.5322917 L12.9867187,10.9846354 Z" id="Path"></path>
            </g>
        </g>
    </g>
</svg>