
<svg width="10" height="18" viewBox="0 0 10 18" fill="none" xmlns="http://www.w3.org/2000/svg">
  <g clip-path="url(#clip0)">
    <mask id="mask0" mask-type="alpha" maskUnits="userSpaceOnUse" x="-1" y="0" width="11" height="19">
      <path d="M0.321702 16.2129L7.15987 9.01864L0.291421 1.79246C-0.101247 1.37934 -0.101184 0.722268 0.312375 0.287976C0.707311 -0.103542 1.33825 -0.0939647 1.72162 0.309369L8.58327 7.52112L9.99951 9.0184L8.57639 10.5089C4.01724 15.3051 1.73415 17.7068 1.72711 17.7138C1.33322 18.1043 0.703976 18.0947 0.32166 17.6924C-0.0699854 17.2803 -0.0699663 16.6249 0.321702 16.2129Z" fill="white"/>
    </mask>
    <g mask="url(#mask0)">
      <path d="M0.321702 16.2129L7.15987 9.01864L0.291421 1.79246C-0.101247 1.37934 -0.101184 0.722268 0.312375 0.287976C0.707311 -0.103542 1.33825 -0.0939647 1.72162 0.309369L8.58327 7.52112L9.99951 9.0184L8.57639 10.5089C4.01724 15.3051 1.73415 17.7068 1.72711 17.7138C1.33322 18.1043 0.703976 18.0947 0.32166 17.6924C-0.0699854 17.2803 -0.0699663 16.6249 0.321702 16.2129Z" fill="currentColor"/>
    </g>
  </g>
  <defs>
    <clipPath id="clip0">
      <rect width="10" height="18" fill="white" transform="translate(9.99951 18.0005) rotate(180)"/>
    </clipPath>
  </defs>
</svg>
