<?xml version="1.0" encoding="UTF-8"?>
<svg width="100%" height="100%" viewBox="0 0 77 141" version="1.1" xmlns="http://www.w3.org/2000/svg" xmlns:xlink="http://www.w3.org/1999/xlink">
    <title>Group 17</title>
    <g id="Page-1" stroke="none" stroke-width="1" fill="none" fill-rule="evenodd">
        <g id="1.-Splash" transform="translate(-152.000000, -193.000000)">
            <g id="Group-17" transform="translate(152.000000, 193.000000)">
                <g id="Group-5" transform="translate(1.013158, 31.664086)">
                    <path d="M10.6526461,42.8654072 C16.5694882,48.6036374 36.2642645,58.4128748 43.6562645,53.9894216 C51.0492776,49.5659683 70.6599618,40.417695 72.1878039,28.7685871 C73.7146329,17.1184576 73.2080539,10.5507022 70.2293697,3.0400259 C67.2516987,-4.47167194 54.0087118,4.53868777 48.9267118,15.0354504 C43.845725,25.5311914 18.9909355,31.5687453 3.01951447,21.693105 C-3.08273553,14.6758532 4.73681711,37.127177 10.6526461,42.8654072" id="Fill-1" fill="#FFCA3B"></path>
                    <path d="M33.2022987,18.3055367 C40.2143645,17.7252777 55.2476013,2.9572777 57.7521276,5.70635683 C50.5546539,10.6824863 51.4371145,20.8472345 33.7038118,27.1340547 C18.2794961,30.4358101 -5.46183289,22.4347741 1.85316711,16.0815511 C11.6027855,7.61569496 26.1912461,18.8857957 33.2022987,18.3055367" id="Fill-3" fill="#FFDF87"></path>
                </g>
                <g id="Group-16" transform="translate(0.000000, -0.004978)">
                    <path d="M39.2534855,83.9931022 C42.933275,82.916354 74.3320513,71.8740662 73.8163539,53.5805842 C72.9582092,23.1568288 60.3403408,5.63362014 57.6656039,1.46147626 L17.0835645,1.26635396 C15.9701039,2.56172086 9.80301184,10.8518647 7.81215658,16.4613755 C4.87501184,24.7351741 1.50119605,38.2711453 3.18303816,54.5224835 C5.58422237,77.7144547 35.5848408,83.1492748 39.2534855,83.9931022 M61.5470118,77.5019655 C60.3464197,78.3417065 59.0749066,79.1610158 57.7355118,79.9578504 C48.5076697,85.4488576 39.3730382,87.9374331 38.9890513,88.0416345 L38.6455908,88.133577 L38.2990908,88.0630878 C37.9211829,87.9864691 0.544775,80.0978072 0.0169197368,51.8234619 C-0.591988158,19.2165842 15.4959461,1.98963453 16.1818539,1.27248345 L16.6175118,0.815835971 L58.1661039,0.0271741007 L58.6291171,0.708569784 C59.3393408,1.75160576 76.0250382,26.5760662 76.5164197,52.8593468 C76.6886566,62.0576777 71.5316829,70.5122964 61.5470118,77.5019655" id="Fill-6" fill="#CCA22F"></path>
                    <polyline id="Fill-8" fill="#CCA22F" points="40.2770789 90.7391237 40.1413158 92.0784187 40.7603553 125.221627 40.82925 128.904433 35.7665 128.717483 37.0663816 92.9855842 36.5993158 128.13416 37.6894737 128.615325 38.8414342 127.809296 38.1535 90.9812388 31.3572368 88.2771094 38.4078026 89.5602173 44.5566579 87.7428216 42.1868816 89.4008504"></polyline>
                    <path d="M8.63818421,60.6533079 C8.04244737,56.4842288 6.37478947,44.8269482 8.15592105,34.8746892 C9.17414474,29.1875381 11.4648947,16.3922144 17.9845658,4.36512086 L19.6522237,4.44889065 C14.3939342,17.6446748 13.0119868,24.0142432 10.9765526,35.3885453 C8.94010526,46.7618259 10.9562895,60.7370777 11.7820132,63.4279266 C12.6067237,66.1187755 13.2602105,67.3671496 18.0190132,72.786646 C14.1619211,70.4666317 9.28457895,65.1758547 8.63818421,60.6533079" id="Fill-10" fill="#FFFFFF"></path>
                    <path d="M60.5699224,139.207504 L40.2895408,139.41795 L38.2156066,139.440424 C38.2156066,139.440424 46.8152908,138.13995 47.1850934,138.135863 L56.7320803,137.671043 C57.1018829,137.666957 61.2163171,137.018252 61.7938171,137.857993 C62.3723303,138.697734 60.5699224,139.207504 60.5699224,139.207504" id="Fill-12" fill="#D4145A"></path>
                    <path d="M37.0802618,133.416151 L36.8543276,133.735906 L37.3213934,134.840237 L36.7357882,135.673849 L38.3892618,136.853777 L25.5251961,137.130626 C25.5251961,137.130626 30.6456961,136.033446 32.5068671,134.730928 C34.1714855,133.565302 37.5007224,131.235072 37.5007224,131.235072 L38.910025,131.491489 L37.0802618,133.416151 Z M33.404525,139.669259 L14.0592882,140.182094 C13.6935382,140.194353 12.6489724,139.925676 13.4817882,139.343374 C14.3135908,138.76005 17.176775,138.692626 17.176775,138.692626 L25.7389724,138.675259 C26.8929592,138.663 35.4571829,139.605921 35.4571829,139.605921 L33.404525,139.669259 Z M60.6969724,136.122324 C51.3779461,136.194856 47.0416303,133.994367 41.5229592,129.880453 L35.4288145,129.944813 C29.5433803,134.30595 23.7086039,136.701561 15.8069855,136.850712 C15.8069855,136.850712 11.748275,136.825173 12.0714724,139.086957 C12.3946697,141.347719 15.8839855,140.951345 15.8839855,140.951345 L60.7709329,140.099345 C60.7709329,140.099345 62.9502355,139.536453 63.2045382,138.115432 C63.4588408,136.692367 60.7739724,136.054899 60.6969724,136.122324 L60.6969724,136.122324 Z" id="Fill-14" fill="#CCA22F"></path>
                </g>
            </g>
        </g>
    </g>
</svg>